Data Visualization I (ggplot2) - Activity Solutions
…
## 
##     [0,140)   [520,580)   [780,800) [1e+03,Inf) 
##        1611        7242       12229         162

 Aggregate activity

# Aggregate the GI data set by gender, ageC, and icd9code (the ones created in the last activity).
GI %>%
  group_by(gender, ageC, icd9code) %>%
  summarize(total = n())

## Source: local data frame [40 x 4]
## Groups: gender, ageC [?]
## 
##    gender     ageC    icd9code total
##    <fctr>   <fctr>      <fctr> <int>
## 1  Female (-Inf,5]     [0,140)   150
## 2  Female (-Inf,5]   [520,580)   771
## 3  Female (-Inf,5]   [780,800)  1235
## 4  Female (-Inf,5] [1e+03,Inf)     5
## 5  Female   (5,18]     [0,140)   140
## 6  Female   (5,18]   [520,580)   677
## 7  Female   (5,18]   [780,800)  1109
## 8  Female   (5,18] [1e+03,Inf)    16
## 9  Female  (18,45]     [0,140)   283
## 10 Female  (18,45]   [520,580)  1289
## # ... with 30 more rows
…
